[
	{
		"Pokedex No":"660",
		"Zusatzinfo":"",
		"Polygon points":"112 649,52 663,37 691,68 709,120 675,138 689,122 697,130 709,118 715,104 723,98 742,118 753,113 757,116 766,111 768,111 776,150 771,145 759,180 757,177 763,178 771,192 769,208 760,191 743,196 729,176 704,182 691,212 662,190 647,166 645,139 665"
	}
	,{
		"Pokedex No":"455",
		"Zusatzinfo":"",
		"Polygon points":"251 735,272 699,264 690,270 682,262 681,210 679,196 682,191 676,200 664,254 670,250 653,261 651,308 651,326 654,336 656,338 676,324 678,322 694,318 693,316 686,308 686,304 693,290 705,296 728,286 745,251 760"
	}
	,{
		"Pokedex No":"434",
		"Zusatzinfo":"",
		"Polygon points":"211 791,234 787,244 775,244 765,252 767,262 759,309 731,338 738,358 756,356 776,341 791,306 798,304 813,266 814,234 801,218 801"
	}
	,{
		"Pokedex No":"445",
		"Zusatzinfo":"",
		"Polygon points":"293 718,285 699,300 698,305 683,317 682,321 691,323 677,362 684,372 680,366 677,378 673,362 670,334 680,334 675,336 670,334 663,334 657,323 654,324 646,321 638,330 634,322 630,316 612,346 624,350 633,370 626,393 633,395 626,405 629,410 639,406 645,394 642,375 651,386 653,386 659,393 661,398 669,391 673,407 679,410 722,407 723,388 679,378 681,369 684,376 693,378 710,376 712,380 719,362 729,346 715,319 717,300 730,291 728"
	}
	,{
		"Pokedex No":"720",
		"Zusatzinfo":"",
		"Polygon points":"362 762,354 757,342 753,350 741,334 734,341 716,348 716,351 725,356 729,374 717,373 711,384 703,398 710,398 721,405 726,412 727,420 711,424 734,404 743,396 763,388 769,378 780,364 777"
	}
	,{
		"Pokedex No":"450",
		"Zusatzinfo":"",
		"Polygon points":"419 651,429 667,429 671,434 673,432 694,426 694,422 717,416 730,400 730,395 717,392 708,384 708,376 711,378 695,366 685,371 676,392 681,409 713,404 681,385 672,382 655,371 645,382 643"
	}
	,{
		"Pokedex No":"694",
		"Zusatzinfo":"",
		"Polygon points":"410 805,394 780,416 751,429 753,455 772,467 764,483 761,496 769,513 746,532 745,533 771,529 793,508 809,482 817,430 817"
	}
	,{
		"Pokedex No":"197",
		"Zusatzinfo":"",
		"Polygon points":"457 761,462 751,456 747,448 737,452 721,443 698,449 685,461 697,463 712,472 709,479 716,497 696,516 683,512 702,490 721,487 733,500 730,511 710,521 709,528 716,522 715,526 725,512 740,516 751,504 764,494 763,490 768,474 763,462 766"
	}
	,{
		"Pokedex No":"492",
		"Zusatzinfo":"",
		"Polygon points":"516 823,519 803,532 795,552 798,554 813,544 828,523 827"
	}
	,{
		"Pokedex No":"25",
		"Zusatzinfo":"",
		"Polygon points":"526 793,524 781,521 760,533 756,537 763,550 765,560 752,561 756,554 766,555 773,569 769,566 784,554 780,558 796,553 794,552 804,534 800,521 810"
	}
	,{
		"Pokedex No":"399",
		"Zusatzinfo":"",
		"Polygon points":"553 831,548 815,555 795,566 783,562 773,576 768,577 777,597 773,598 771,614 765,632 777,636 793,633 823,605 837,559 838"
	}
	,{
		"Pokedex No":"196",
		"Zusatzinfo":"",
		"Polygon points":"532 759,537 747,536 735,520 717,529 717,523 705,530 703,536 715,542 716,542 707,547 699,546 717,566 721,592 713,594 716,586 731,592 733,590 741,578 742,572 747,573 767,568 773,554 772,560 754,559 752,550 769,538 768"
	}
	,{
		"Pokedex No":"420",
		"Zusatzinfo":"",
		"Polygon points":"576 701,584 693,587 691,576 685,589 679,597 684,603 684,608 688,608 696,606 704,599 705,597 711,577 711"
	}
	,{
		"Pokedex No":"713",
		"Zusatzinfo":"",
		"Polygon points":"547 703,543 703,540 710,534 711,530 700,512 713,504 711,520 686,510 684,505 679,504 659,627 655,629 681,621 681,625 694,613 707,597 709,606 699,604 689,596 689,587 681,580 687,588 689,589 697,580 700,576 711,546 711"
	}
	,{
		"Pokedex No":"465",
		"Zusatzinfo":"",
		"Polygon points":"438 639,465 619,513 614,528 589,558 579,576 585,590 607,593 617,640 641,635 649,598 629,578 653,538 657,522 651,504 627,468 633,452 656,438 655"
	}
	,{
		"Pokedex No":"83",
		"Zusatzinfo":"",
		"Polygon points":"680 845,682 827,696 807,693 792,700 780,700 766,710 761,721 766,721 772,731 779,731 798,741 785,741 778,760 756,768 760,751 779,756 782,766 812,749 812,748 821,737 823,729 844,733 848,703 862,686 858"
	}
	,{
		"Pokedex No":"443",
		"Zusatzinfo":"",
		"Polygon points":"640 805,646 791,631 791,626 784,632 777,650 773,650 765,692 719,690 752,692 756,705 751,710 766,703 773,696 791,703 806,697 813,685 809,646 817"
	}
	,{
		"Pokedex No":"492",
		"Zusatzinfo":"sky forme",
		"Polygon points":"644 758,646 752,643 750,640 740,624 730,626 721,640 729,634 719,648 722,656 708,660 730,676 719,689 718,686 731,668 741,662 737,666 755,658 763,648 764"
	}
	,{
		"Pokedex No":"454",
		"Zusatzinfo":"",
		"Polygon points":"586 748,614 717,612 700,620 696,621 675,632 687,642 690,672 706,674 722,660 727,654 717,652 723,640 723,646 727,642 731,632 723,627 726,647 740,646 758,636 759,626 773,610 768,590 775,580 776"
	}
	,{
		"Pokedex No":"421",
		"Zusatzinfo":"",
		"Polygon points":"737 819,730 797,728 783,734 777,757 774,768 778,770 809,768 817,750 821"
	}
	,{
		"Pokedex No":"729",
		"Zusatzinfo":"",
		"Polygon points":"735 766,728 761,730 753,734 732,753 739,759 747,758 762,748 768,743 778,728 781"
	}
	,{
		"Pokedex No":"700",
		"Zusatzinfo":"",
		"Polygon points":"698 739,689 744,686 736,694 727,691 715,699 706,685 686,688 653,694 653,708 683,714 685,738 653,742 659,734 695,760 707,762 713,752 716,757 731,752 739,734 735,732 753,734 765,719 769,700 756"
	}
	,{
		"Pokedex No":"705",
		"Zusatzinfo":"",
		"Polygon points":"646 697,640 687,665 685,665 673,654 663,658 651,666 616,672 621,670 643,675 643,696 618,700 626,684 650,691 655,679 676,680 680,686 683,682 700,692 709,667 710"
	}
	,{
		"Pokedex No":"730",
		"Zusatzinfo":"",
		"Polygon points":"734 659,723 675,716 668,703 668,699 663,715 653,720 644,714 623,716 620,732 639,751 611,755 613,748 633,757 631,757 622,766 622,769 631,788 623,789 627,766 643,768 650,766 651,761 646,751 650,773 654,801 664,801 666,753 665,749 667,759 706,755 707,739 678,742 658"
	}
	,{
		"Pokedex No":"675",
		"Zusatzinfo":"",
		"Polygon points":"793 666,750 649,784 627,742 637,758 609,760 594,772 583,786 590,792 607,802 609,823 641,806 647,799 673,782 677,785 683,759 687,749 669"
	}
	,{
		"Pokedex No":"133",
		"Zusatzinfo":"",
		"Polygon points":"826 829,820 823,823 799,812 795,802 773,826 786,838 779,848 788,875 773,870 787,852 799,852 804,855 809,852 820,847 825,847 840,824 837"
	}
	,{
		"Pokedex No":"723",
		"Zusatzinfo":"",
		"Polygon points":"762 782,755 771,766 758,753 748,759 722,770 719,779 728,786 720,794 722,800 739,804 753,804 771,792 771,803 775,794 798,767 802"
	}
	,{
		"Pokedex No":"726",
		"Zusatzinfo":"",
		"Polygon points":"850 793,836 787,824 789,820 783,809 781,788 775,808 763,813 718,820 737,823 729,828 719,834 718,833 735,841 725,846 755,854 767,864 770,862 775,858 775,858 783"
	}
	,{
		"Pokedex No":"427",
		"Zusatzinfo":"",
		"Polygon points":"891 818,888 800,886 792,892 791,886 780,890 768,875 751,885 739,898 743,901 769,907 769,908 763,916 755,926 757,930 771,914 791,921 797,922 799,916 805,916 817,900 821"
	}
	,{
		"Pokedex No":"134",
		"Zusatzinfo":"",
		"Polygon points":"910 771,900 773,890 747,885 745,880 750,894 774,890 795,882 789,872 786,870 771,865 769,866 783,856 784,855 770,844 756,843 743,866 726,884 722,887 693,902 712,913 705,922 674,930 710,944 705,951 708,938 734,936 756,914 761"
	}
	,{
		"Pokedex No":"724",
		"Zusatzinfo":"",
		"Polygon points":"777 699,777 677,800 669,798 655,804 645,831 642,838 658,838 672,854 673,854 665,870 666,888 699,880 726,864 729,842 751,834 750,832 722,818 750,804 751,790 726,786 729,774 727"
	}
	,{
		"Pokedex No":"668",
		"Zusatzinfo":"",
		"Polygon points":"832 634,825 629,828 607,836 613,844 609,835 602,842 596,857 607,865 599,870 603,866 606,872 614,876 614,881 606,888 625,878 635,884 643,874 661,880 669,872 669,855 670,856 680,832 672,836 658,830 649,823 645"
	}
	,{
		"Pokedex No":"727",
		"Zusatzinfo":"",
		"Polygon points":"892 660,894 647,893 633,901 637,902 629,920 632,929 627,953 629,953 649,971 666,981 701,973 719,958 714,965 695,959 679,949 678,941 711,928 713,921 679,909 707,904 681,881 699"
	}
	,{
		"Pokedex No":"697",
		"Zusatzinfo":"",
		"Polygon points":"878 669,874 667,872 662,879 655,880 644,876 637,884 628,884 616,879 613,879 617,870 617,866 601,854 610,843 592,858 590,858 565,867 559,880 550,898 553,912 573,907 592,928 595,913 605,924 615,898 621,896 635,898 659,882 688,874 679"
	}
	,{
		"Pokedex No":"53",
		"Zusatzinfo":"",
		"Polygon points":"1277 1078,1266 1051,1237 1033,1229 982,1212 971,1225 999,1202 1009,1184 975,1180 981,1190 1015,1162 1021,1150 965,1169 909,1149 905,1141 915,1150 927,1150 947,1130 950,1118 926,1114 905,1152 885,1192 895,1217 895,1240 917,1257 919,1273 926,1281 917,1293 921,1297 910,1321 907,1344 933,1349 979,1344 993,1309 985,1280 997,1293 1037,1321 1065,1321 1077"
	}
	,{
		"Pokedex No":"424",
		"Zusatzinfo":"",
		"Polygon points":"1410 927,1380 922,1358 871,1336 863,1329 842,1309 827,1309 811,1334 823,1325 802,1329 789,1374 790,1373 819,1400 857,1422 845,1397 819,1408 810,1436 827,1442 803,1482 789,1530 798,1545 846,1553 899,1533 901,1532 950,1481 927,1493 954,1466 965,1420 958"
	}
	,{
		"Pokedex No":"26",
		"Zusatzinfo":"",
		"Polygon points":"1038 886,1042 851,1038 811,1058 838,1064 838,1081 842,1106 826,1106 851,1090 859,1094 877,1110 858,1122 827,1114 810,1070 798,1082 819,1068 819,990 785,1042 789,1038 779,1100 791,1133 814,1133 846,1094 886,1098 910,1082 934,1029 922"
	}
	,{
		"Pokedex No":"135",
		"Zusatzinfo":"",
		"Polygon points":"1196 857,1229 850,1241 857,1257 849,1289 882,1274 931,1230 923,1208 905,1176 902,1173 886,1182 870,1177 853,1192 829"
	}
	,{
		"Pokedex No":"614",
		"Zusatzinfo":"",
		"Polygon points":"1309 805,1305 793,1313 793,1320 781,1329 803,1337 822,1314 813,1309 821,1328 833,1332 851,1344 859,1348 882,1325 881,1320 867,1309 861,1300 833"
	}
	,{
		"Pokedex No":"136",
		"Zusatzinfo":"",
		"Polygon points":"1233 822,1217 794,1221 785,1240 811,1261 755,1261 738,1290 759,1310 786,1305 829,1284 837,1281 866,1265 871,1257 857,1249 867,1224 849"
	}
	,{
		"Pokedex No":"696",
		"Zusatzinfo":"",
		"Polygon points":"1166 831,1146 822,1158 791,1157 762,1168 739,1194 741,1214 769,1204 793,1221 795,1216 839,1196 822,1173 814"
	}
	,{
		"Pokedex No":"701",
		"Zusatzinfo":"",
		"Polygon points":"1054 775,1082 767,1088 753,1084 739,1092 734,1106 739,1104 746,1106 767,1141 777,1157 811,1112 806,1109 823,1104 823,1096 810,1092 823,1086 826,1080 798,1109 802,1086 794,1048 787"
	}
	,{
		"Pokedex No":"706",
		"Zusatzinfo":"",
		"Polygon points":"1062 719,1077 707,1077 675,1066 649,1094 646,1112 682,1096 686,1098 711,1112 723,1125 754,1117 777,1108 769,1101 743,1096 738,1084 742,1085 771,1080 769,1073 755,1058 743"
	}
	,{
		"Pokedex No":"52",
		"Zusatzinfo":"",
		"Polygon points":"993 760,990 737,1017 734,1016 761,1025 784,1014 790,988 786"
	}
	,{
		"Pokedex No":"431",
		"Zusatzinfo":"",
		"Polygon points":"965 735,972 727,986 729,980 759,962 754"
	}
	,{
		"Pokedex No":"676",
		"Zusatzinfo":"",
		"Polygon points":"968 709,976 709,977 698,970 690,970 657,994 665,996 682,1002 737,985 743,980 725,968 725"
	}
	,{
		"Pokedex No":"714",
		"Zusatzinfo":"",
		"Polygon points":"1005 655,1000 623,1044 635,1036 655,1029 690,1010 683"
	}
	,{
		"Pokedex No":"689",
		"Zusatzinfo":"",
		"Polygon points":"1006 651,1010 653,1016 663,1013 683,1029 686,1034 650,1030 641,1041 627,1058 627,1066 633,1046 651,1049 655,1054 671,1042 673,1050 705,1044 731,1022 735,1014 709,998 713,989 693,990 689,988 669,978 657,981 645,969 617,977 615,1002 635"
	}
	,{
		"Pokedex No":"249",
		"Zusatzinfo":"shadow",
		"Polygon points":"749 501,800 529,798 553,818 561,846 555,858 551,852 534,846 526,862 514,882 494,889 462,872 461,858 493,834 511,820 502,818 513,810 490,789 497,789 519,770 495,764 469,746 469"
	}
	,{
		"Pokedex No":"493",
		"Zusatzinfo":"",
		"Polygon points":"569 395,581 327,617 335,617 319,624 291,653 303,644 323,653 331,653 350,665 351,657 421,641 419,625 435,613 431,597 411"
	}
	,{
		"Pokedex No":"721",
		"Zusatzinfo":"",
		"Polygon points":"653 355,644 327,649 311,664 299,680 302,696 330,685 339,701 361"
	}
	,{
		"Pokedex No":"717",
		"Zusatzinfo":"",
		"Polygon points":"716 315,750 315,721 255,749 239,754 251,753 262,760 291,768 282,786 293,785 262,805 271,800 310,776 321,770 346,716 327"
	}
	,{
		"Pokedex No":"716",
		"Zusatzinfo":"",
		"Polygon points":"818 350,809 346,809 334,828 342,841 334,848 339,829 353,838 378,816 381"
	}
	,{
		"Pokedex No":"484",
		"Zusatzinfo":"",
		"Polygon points":"1085 506,1097 485,1105 481,1118 508,1113 530,1085 534"
	}
	,{
		"Pokedex No":"483",
		"Zusatzinfo":"",
		"Polygon points":"1114 506,1118 494,1114 474,1124 458,1137 461,1133 482,1148 486,1153 497,1146 510,1141 522,1109 527"
	}
	,{
		"Pokedex No":"487",
		"Zusatzinfo":"",
		"Polygon points":"1145 494,1128 487,1141 469,1156 467,1173 473,1177 457,1200 455,1205 467,1210 475,1180 491,1182 495,1153 506"
	}
	,{
		"Pokedex No":"715",
		"Zusatzinfo":"",
		"Polygon points":"1116 538,1149 501,1180 494,1196 507,1208 483,1229 475,1249 482,1296 487,1336 523,1297 514,1253 515,1236 535,1250 558,1237 570,1249 605,1218 577,1201 571,1205 535,1182 522"
	}
	,{
		"Pokedex No":"488",
		"Zusatzinfo":"",
		"Polygon points":"1465 408,1442 392,1437 376,1474 372,1473 356,1481 342,1504 356,1497 374,1501 385,1501 393,1526 406,1506 410,1482 420,1457 418"
	}
	,{
		"Pokedex No":"485",
		"Zusatzinfo":"",
		"Polygon points":"1517 411,1533 394,1556 369,1589 373,1589 382,1612 382,1621 413,1592 413,1546 417,1521 422"
	}
	,{
		"Pokedex No":"491",
		"Zusatzinfo":"",
		"Polygon points":"1608 366,1589 358,1593 326,1609 323,1617 298,1677 274,1685 283,1709 269,1726 270,1665 322,1688 334,1741 358,1664 391,1581 390"
	}
]
